<?xml version="1.0" encoding="UTF-8"?>
<issues format="4" by="lint 25.1.4 rc1">

    <issue
        id="UnknownId"
        severity="Fatal"
        message="The id &quot;`btn_channel`&quot; is not defined anywhere."
        category="Correctness"
        priority="8"
        summary="Reference to an unknown id"
        explanation="The `@+id/` syntax refers to an existing id, or creates a new one if it has not already been defined elsewhere. However, this means that if you have a typo in your reference, or if the referred view no longer exists, you do not get a warning since the id will be created on demand. This check catches errors where you have renamed an id without updating all of the references to it."
        errorLine1="            android:layout_toRightOf=&quot;@+id/btn_channel&quot;"
        errorLine2="            ~~~~~~~~~~~~~~~~~~~~~~~~~~~~~~~~~~~~~~~~~~~">
        <location
            file="C:\Users\vpol0001\Music\New folder\enterrr\app\src\main\res\layout\sendbird_fragment_messaging.xml"
            line="42"
            column="13"/>
    </issue>

    <issue
        id="ResourceType"
        severity="Fatal"
        message="Expected resource of type dimen"
        category="Correctness"
        priority="7"
        summary="Wrong Resource Type"
        explanation="Ensures that resource id&apos;s passed to APIs are of the right type; for example, calling `Resources.getColor(R.string.name)` is wrong."
        errorLine1="  textPaint.setTextSize(getResources().getDimension(10));"
        errorLine2="                                                    ~~">
        <location
            file="C:\Users\vpol0001\Music\New folder\enterrr\app\src\main\java\com\entree\entree\loader\LoaderView.java"
            line="72"
            column="53"/>
    </issue>

</issues>
